; Engine configuration file.
; It's best edited using the editor UI and not directly,
; since the parameters that go here are not all obvious.
;
; Format:
;   [section] ; section goes between []
;   param=value ; assign values to parameters

config_version=4

_global_script_classes=[ {
"base": "Node",
"class": "Item",
"language": "GDScript",
"path": "res://plugins/items/item.gd"
}, {
"base": "Spatial",
"class": "NodeBoard",
"language": "GDScript",
"path": "res://scenes/board_logic/node/node.gd"
}, {
"base": "Reference",
"class": "SaveGameLoader",
"language": "GDScript",
"path": "res://savegames/savegames.gd"
} ]
_global_script_class_icons={
"Item": "",
"NodeBoard": "",
"SaveGameLoader": ""
}

[application]

config/name="Super Tux Party"
run/main_scene="res://scenes/menus/main_menu.tscn"
config/project_settings_override="user://render_settings.godot"
config/icon="res://assets/icons/icon-smallest.png"

[autoload]

Utility="*res://scripts/utility.gd"
Global="*res://scripts/global.gd"
ControlHelper="*res://scripts/control_helper.gd"
UISound="*res://scenes/sound_button/ui_sound.tscn"

[debug]

settings/fps/force_fps=60
gdscript/warnings/unused_class_variable=false
gdscript/warnings/function_conflicts_variable=false
gdscript/warnings/function_conflicts_constant=false
gdscript/warnings/return_value_discarded=false

[display]

window/size/width=1280
window/size/height=720
window/vsync/use_vsync=false

[input]

ui_focus_next={
"deadzone": 0.5,
"events": [ Object(InputEventKey,"resource_local_to_scene":false,"resource_name":"","device":0,"alt":false,"shift":false,"control":false,"meta":false,"command":false,"pressed":false,"scancode":16777218,"unicode":0,"echo":false,"script":null)
, Object(InputEventJoypadButton,"resource_local_to_scene":false,"resource_name":"","device":0,"button_index":5,"pressure":0.0,"pressed":false,"script":null)
 ]
}
ui_focus_prev={
"deadzone": 0.5,
"events": [ Object(InputEventKey,"resource_local_to_scene":false,"resource_name":"","device":0,"alt":false,"shift":true,"control":false,"meta":false,"command":false,"pressed":false,"scancode":16777218,"unicode":0,"echo":false,"script":null)
, Object(InputEventJoypadButton,"resource_local_to_scene":false,"resource_name":"","device":0,"button_index":4,"pressure":0.0,"pressed":false,"script":null)
 ]
}
player1_left={
"deadzone": 0.5,
"events": [ Object(InputEventKey,"resource_local_to_scene":false,"resource_name":"","device":0,"alt":false,"shift":false,"control":false,"meta":false,"command":false,"pressed":false,"scancode":16777231,"unicode":0,"echo":false,"script":null)
 ]
}
player1_right={
"deadzone": 0.5,
"events": [ Object(InputEventKey,"resource_local_to_scene":false,"resource_name":"","device":0,"alt":false,"shift":false,"control":false,"meta":false,"command":false,"pressed":false,"scancode":16777233,"unicode":0,"echo":false,"script":null)
 ]
}
player1_up={
"deadzone": 0.5,
"events": [ Object(InputEventKey,"resource_local_to_scene":false,"resource_name":"","device":0,"alt":false,"shift":false,"control":false,"meta":false,"command":false,"pressed":false,"scancode":16777232,"unicode":0,"echo":false,"script":null)
 ]
}
player1_down={
"deadzone": 0.5,
"events": [ Object(InputEventKey,"resource_local_to_scene":false,"resource_name":"","device":0,"alt":false,"shift":false,"control":false,"meta":false,"command":false,"pressed":false,"scancode":16777234,"unicode":0,"echo":false,"script":null)
 ]
}
player1_action1={
"deadzone": 0.5,
"events": [ Object(InputEventKey,"resource_local_to_scene":false,"resource_name":"","device":0,"alt":false,"shift":false,"control":false,"meta":false,"command":false,"pressed":false,"scancode":16777350,"unicode":0,"echo":false,"script":null)
 ]
}
player1_action2={
"deadzone": 0.5,
"events": [ Object(InputEventKey,"resource_local_to_scene":false,"resource_name":"","device":0,"alt":false,"shift":false,"control":false,"meta":false,"command":false,"pressed":false,"scancode":16777351,"unicode":0,"echo":false,"script":null)
 ]
}
player1_action3={
"deadzone": 0.5,
"events": [ Object(InputEventKey,"resource_local_to_scene":false,"resource_name":"","device":0,"alt":false,"shift":false,"control":false,"meta":false,"command":false,"pressed":false,"scancode":16777352,"unicode":0,"echo":false,"script":null)
 ]
}
player1_action4={
"deadzone": 0.5,
"events": [ Object(InputEventKey,"resource_local_to_scene":false,"resource_name":"","device":0,"alt":false,"shift":false,"control":false,"meta":false,"command":false,"pressed":false,"scancode":16777353,"unicode":0,"echo":false,"script":null)
 ]
}
player1_ok={
"deadzone": 0.5,
"events": [ Object(InputEventKey,"resource_local_to_scene":false,"resource_name":"","device":0,"alt":false,"shift":false,"control":false,"meta":false,"command":false,"pressed":false,"scancode":32,"unicode":0,"echo":false,"script":null)
 ]
}
player2_left={
"deadzone": 0.5,
"events": [ Object(InputEventKey,"resource_local_to_scene":false,"resource_name":"","device":0,"alt":false,"shift":false,"control":false,"meta":false,"command":false,"pressed":false,"scancode":65,"unicode":0,"echo":false,"script":null)
 ]
}
player2_right={
"deadzone": 0.5,
"events": [ Object(InputEventKey,"resource_local_to_scene":false,"resource_name":"","device":0,"alt":false,"shift":false,"control":false,"meta":false,"command":false,"pressed":false,"scancode":68,"unicode":0,"echo":false,"script":null)
 ]
}
player2_up={
"deadzone": 0.5,
"events": [ Object(InputEventKey,"resource_local_to_scene":false,"resource_name":"","device":0,"alt":false,"shift":false,"control":false,"meta":false,"command":false,"pressed":false,"scancode":87,"unicode":0,"echo":false,"script":null)
 ]
}
player2_down={
"deadzone": 0.5,
"events": [ Object(InputEventKey,"resource_local_to_scene":false,"resource_name":"","device":0,"alt":false,"shift":false,"control":false,"meta":false,"command":false,"pressed":false,"scancode":83,"unicode":0,"echo":false,"script":null)
 ]
}
player2_action1={
"deadzone": 0.5,
"events": [ Object(InputEventKey,"resource_local_to_scene":false,"resource_name":"","device":0,"alt":false,"shift":false,"control":false,"meta":false,"command":false,"pressed":false,"scancode":49,"unicode":0,"echo":false,"script":null)
 ]
}
player2_action2={
"deadzone": 0.5,
"events": [ Object(InputEventKey,"resource_local_to_scene":false,"resource_name":"","device":0,"alt":false,"shift":false,"control":false,"meta":false,"command":false,"pressed":false,"scancode":50,"unicode":0,"echo":false,"script":null)
 ]
}
player2_action3={
"deadzone": 0.5,
"events": [ Object(InputEventKey,"resource_local_to_scene":false,"resource_name":"","device":0,"alt":false,"shift":false,"control":false,"meta":false,"command":false,"pressed":false,"scancode":51,"unicode":0,"echo":false,"script":null)
 ]
}
player2_action4={
"deadzone": 0.5,
"events": [ Object(InputEventKey,"resource_local_to_scene":false,"resource_name":"","device":0,"alt":false,"shift":false,"control":false,"meta":false,"command":false,"pressed":false,"scancode":52,"unicode":0,"echo":false,"script":null)
 ]
}
player2_ok={
"deadzone": 0.5,
"events": [ Object(InputEventKey,"resource_local_to_scene":false,"resource_name":"","device":0,"alt":false,"shift":false,"control":false,"meta":false,"command":false,"pressed":false,"scancode":32,"unicode":0,"echo":false,"script":null)
 ]
}
player3_left={
"deadzone": 0.5,
"events": [ Object(InputEventJoypadMotion,"resource_local_to_scene":false,"resource_name":"","device":0,"axis":0,"axis_value":-1.0,"script":null)
 ]
}
player3_right={
"deadzone": 0.5,
"events": [ Object(InputEventJoypadMotion,"resource_local_to_scene":false,"resource_name":"","device":0,"axis":0,"axis_value":1.0,"script":null)
 ]
}
player3_up={
"deadzone": 0.5,
"events": [ Object(InputEventJoypadMotion,"resource_local_to_scene":false,"resource_name":"","device":0,"axis":1,"axis_value":-1.0,"script":null)
 ]
}
player3_down={
"deadzone": 0.5,
"events": [ Object(InputEventJoypadMotion,"resource_local_to_scene":false,"resource_name":"","device":0,"axis":1,"axis_value":1.0,"script":null)
 ]
}
player3_action1={
"deadzone": 0.5,
"events": [ Object(InputEventJoypadButton,"resource_local_to_scene":false,"resource_name":"","device":0,"button_index":0,"pressure":0.0,"pressed":false,"script":null)
 ]
}
player3_action2={
"deadzone": 0.5,
"events": [ Object(InputEventJoypadButton,"resource_local_to_scene":false,"resource_name":"","device":0,"button_index":1,"pressure":0.0,"pressed":false,"script":null)
 ]
}
player3_action3={
"deadzone": 0.5,
"events": [ Object(InputEventJoypadButton,"resource_local_to_scene":false,"resource_name":"","device":0,"button_index":2,"pressure":0.0,"pressed":false,"script":null)
 ]
}
player3_action4={
"deadzone": 0.5,
"events": [ Object(InputEventJoypadButton,"resource_local_to_scene":false,"resource_name":"","device":0,"button_index":3,"pressure":0.0,"pressed":false,"script":null)
 ]
}
player3_ok={
"deadzone": 0.5,
"events": [ Object(InputEventJoypadButton,"resource_local_to_scene":false,"resource_name":"","device":0,"button_index":0,"pressure":0.0,"pressed":false,"script":null)
 ]
}
player4_left={
"deadzone": 0.5,
"events": [ Object(InputEventJoypadMotion,"resource_local_to_scene":false,"resource_name":"","device":1,"axis":0,"axis_value":-1.0,"script":null)
 ]
}
player4_right={
"deadzone": 0.5,
"events": [ Object(InputEventJoypadMotion,"resource_local_to_scene":false,"resource_name":"","device":1,"axis":0,"axis_value":1.0,"script":null)
 ]
}
player4_up={
"deadzone": 0.5,
"events": [ Object(InputEventJoypadMotion,"resource_local_to_scene":false,"resource_name":"","device":1,"axis":1,"axis_value":-1.0,"script":null)
 ]
}
player4_down={
"deadzone": 0.5,
"events": [ Object(InputEventJoypadMotion,"resource_local_to_scene":false,"resource_name":"","device":1,"axis":1,"axis_value":1.0,"script":null)
 ]
}
player4_action1={
"deadzone": 0.5,
"events": [ Object(InputEventJoypadButton,"resource_local_to_scene":false,"resource_name":"","device":1,"button_index":0,"pressure":0.0,"pressed":false,"script":null)
 ]
}
player4_action2={
"deadzone": 0.5,
"events": [ Object(InputEventJoypadButton,"resource_local_to_scene":false,"resource_name":"","device":1,"button_index":1,"pressure":0.0,"pressed":false,"script":null)
 ]
}
player4_action3={
"deadzone": 0.5,
"events": [ Object(InputEventJoypadButton,"resource_local_to_scene":false,"resource_name":"","device":1,"button_index":2,"pressure":0.0,"pressed":false,"script":null)
 ]
}
player4_action4={
"deadzone": 0.5,
"events": [ Object(InputEventJoypadButton,"resource_local_to_scene":false,"resource_name":"","device":1,"button_index":3,"pressure":0.0,"pressed":false,"script":null)
 ]
}
player4_ok={
"deadzone": 0.5,
"events": [ Object(InputEventJoypadButton,"resource_local_to_scene":false,"resource_name":"","device":1,"button_index":0,"pressure":0.0,"pressed":false,"script":null)
 ]
}
debug={
"deadzone": 0.5,
"events": [ Object(InputEventKey,"resource_local_to_scene":false,"resource_name":"","device":0,"alt":false,"shift":false,"control":false,"meta":false,"command":false,"pressed":false,"scancode":16777255,"unicode":0,"echo":false,"script":null)
 ]
}
player1_pause={
"deadzone": 0.5,
"events": [ Object(InputEventKey,"resource_local_to_scene":false,"resource_name":"","device":0,"alt":false,"shift":false,"control":false,"meta":false,"command":false,"pressed":false,"scancode":16777242,"unicode":0,"echo":false,"script":null)
 ]
}
left_mouse_pressed={
"deadzone": 0.5,
"events": [ Object(InputEventMouseButton,"resource_local_to_scene":false,"resource_name":"","device":0,"alt":false,"shift":false,"control":false,"meta":false,"command":false,"button_mask":0,"position":Vector2( 0, 0 ),"global_position":Vector2( 0, 0 ),"factor":1.0,"button_index":1,"pressed":false,"doubleclick":false,"script":null)
 ]
}
player2_pause={
"deadzone": 0.5,
"events": [ Object(InputEventKey,"resource_local_to_scene":false,"resource_name":"","device":0,"alt":false,"shift":false,"control":false,"meta":false,"command":false,"pressed":false,"scancode":16777217,"unicode":0,"echo":false,"script":null)
 ]
}
player3_pause={
"deadzone": 0.5,
"events": [ Object(InputEventJoypadButton,"resource_local_to_scene":false,"resource_name":"","device":0,"button_index":11,"pressure":0.0,"pressed":false,"script":null)
 ]
}
player4_pause={
"deadzone": 0.5,
"events": [ Object(InputEventJoypadButton,"resource_local_to_scene":false,"resource_name":"","device":1,"button_index":11,"pressure":0.0,"pressed":false,"script":null)
 ]
}

[locale]

translations=PoolStringArray( "res://translations/de.po", "res://translations/en.po", "res://translations/fr.po", "res://translations/it.po", "res://translations/pt_BR.po" )
locale_filter=[ 0, [ "de", "en", "fr", "it", "pt_BR" ] ]

[plugins]

load_plugins=false

[rendering]

environment/default_clear_color=Color( 0.352941, 0.788235, 0.866667, 1 )
environment/default_environment="res://assets/defaults/default_env.tres"
