[gd_resource type="ConcavePolygonShape" format=2]

[resource]

data = PoolVector3Array( -0.6172, 1, -1.208, -1.6006, 1, -0.5103, -1.3096, 1, -1.1455, -1.8418, 1, -0.1023, -1.6006, 1, -0.5103, -1.7959, 1, 0.261, -1.6006, 1, -0.5103, -0.6172, 1, -1.208, -1.7959, 1, 0.261, -1.6563, 1, 0.5649, -1.7959, 1, 0.261, -1.3691, 0.9907, 0.8247, -0.646, 1, 1.2568, -1.1465, 1, 1.3164, -1.3691, 0.9907, 0.8247, -0.08, 1, 1.4199, -1.7959, 1, 0.261, -0.6172, 1, -1.208, -0.08, 1, 1.4199, -0.646, 1, 1.2568, -1.7959, 1, 0.261, -1.7959, 1, 0.261, -0.646, 1, 1.2568, -1.3691, 0.9907, 0.8247, 0.3279, 1, 1.8535, -0.08, 1, 1.4199, 0.7207, 1, 1.3301, -0.6172, 1, -1.208, -0.224, 1, -1.4707, 0.7207, 1, 1.3301, -0.6172, 1, -1.208, 0.7207, 1, 1.3301, -0.08, 1, 1.4199, -0.224, 1, -1.4707, 0.2284, 1, -1.3965, 0.7207, 1, 1.3301, 0.2284, 1, -1.3965, 0.6064, 1, -1.1035, 0.7207, 1, 1.3301, 0.7207, 1, 1.3301, 0.6064, 1, -1.1035, 1.3115, 1, 1.2607, 1.251, 1, -0.6914, 0.6064, 1, -1.1035, 1, 1, -1.1816, 1.251, 1, -0.6914, 1.4697, 1, -0.2463, 0.6064, 1, -1.1035, 1.4697, 1, -0.2463, 1.2715, 1, 0.2358, 0.6064, 1, -1.1035, 0.6064, 1, -1.1035, 1.2715, 1, 0.2358, 1.3115, 1, 1.2607, 1.5674, 1, 0.6758, 1.3115, 1, 1.2607, 1.2715, 1, 0.2358, 1.1631, -0.9448, -0.8306, 1, -1, -1, 0.6636, -0.4426, -0.8916, 1, -1, 1, 0.5234, -1.1592, 0.9629, 0.751, -1.083, 1.1611, 1.0283, -0.9902, 0.3909, 0.6636, -0.4426, -0.8916, 0.5234, -1.1592, 0.9629, 0.0609, -0.6445, -0.8584, 0.6636, -0.4426, -0.8916, 0.3743, -0.5396, -1, -0.4373, -0.8115, -0.9746, 0.0609, -0.6445, -0.8584, -0.2123, -0.7358, -1.1738, -0.436, -1.4805, 0.8599, -0.8149, -0.938, 0.459, -1.0557, -1.0186, 0.6421, -0.6382, -0.8784, -0.0484, -0.8149, -0.938, 0.459, -0.436, -1.4805, 0.8599, -1, -1, -1, -0.4373, -0.8115, -0.9746, -0.6299, -0.876, -1.249, 0.6636, -0.4426, -0.8916, 0.6064, 1, -1.1035, 0.2284, 1, -1.3965, 0.6636, -0.4426, -0.8916, 1, -1, -1, 1, 1, -1.1816, 0.3743, -0.5396, -1, 0.2284, 1, -1.3965, -0.224, 1, -1.4707, 0.0609, -0.6445, -0.8584, -0.224, 1, -1.4707, -0.6172, 1, -1.208, -0.6299, -0.876, -1.249, -0.4373, -0.8115, -0.9746, -0.2123, -0.7358, -1.1738, -0.6172, 1, -1.208, -1.3096, 1, -1.1455, -1, -1, -1, -0.9272, -0.9756, -0.6558, -1, -1, -1, -1.3096, 1, -1.1455, -0.9272, -0.9756, -0.6558, -1.6006, 1, -0.5103, -1.8418, 1, -0.1023, -0.6704, -0.8892, -0.4727, -1.8418, 1, -0.1023, -1.7959, 1, 0.261, -0.6382, -0.8784, -0.0484, -1.7959, 1, 0.261, -1.6563, 1, 0.5649, -0.8472, -0.9487, 0.0098, -1.6563, 1, 0.5649, -1.3691, 0.9907, 0.8247, -0.8149, -0.938, 0.459, -1.3691, 0.9907, 0.8247, -1.1465, 1, 1.3164, -1.1465, 1, 1.3164, -1, -1, 1, -1.0557, -1.0186, 0.6421, -0.436, -1.4805, 0.8599, -1, -1, 1, -1.1465, 1, 1.3164, -0.2369, -1.4141, 1.1104, -0.646, 1, 1.2568, 0.0189, -1.3281, 0.9189, 0.0189, -1.3281, 0.9189, -0.08, 1, 1.4199, 0.3279, 1, 1.8535, 0.225, -1.2588, 1.125, 0.3279, 1, 1.8535, 0.7207, 1, 1.3301, 0.5234, -1.1592, 0.9629, 0.7207, 1, 1.3301, 1.3115, 1, 1.2607, 1.3115, 1, 1.2607, 1, -1, 1, 0.751, -1.083, 1.1611, 1.2412, -0.9189, 0.6484, 1, -1, 1, 1.3115, 1, 1.2607, 1.5674, 1, 0.6758, 1.2715, 1, 0.2358, 1.0283, -0.9902, 0.3909, 1.2715, 1, 0.2358, 1.4697, 1, -0.2463, 1.1631, -0.9448, 0.0451, 1.4697, 1, -0.2463, 1.251, 1, -0.6914, 1.0918, -0.9688, -0.4331, 1, 1, -1.1816, 0.6636, -0.4426, -0.8916, 1.0918, -0.9688, -0.4331, 1.1631, -0.9448, -0.8306, 0.6636, -0.4426, -0.8916, 1.0918, -0.9688, -0.4331, 0.5234, -1.1592, 0.9629, 1, -1, 1, 1.0283, -0.9902, 0.3909, 1.0283, -0.9902, 0.3909, 1, -1, 1, 1.2412, -0.9189, 0.6484, 1.0918, -0.9688, -0.4331, 0.6636, -0.4426, -0.8916, 1.1631, -0.9448, 0.0451, 1.1631, -0.9448, 0.0451, 0.6636, -0.4426, -0.8916, 1.0283, -0.9902, 0.3909, 0.6636, -0.4426, -0.8916, 0.0609, -0.6445, -0.8584, 0.5234, -1.1592, 0.9629, 0.5234, -1.1592, 0.9629, 0.0189, -1.3281, 0.9189, 0.225, -1.2588, 1.125, 0.0609, -0.6445, -0.8584, 0.0189, -1.3281, 0.9189, 0.5234, -1.1592, 0.9629, 0.0609, -0.6445, -0.8584, -0.436, -1.4805, 0.8599, 0.0189, -1.3281, 0.9189, 0.0189, -1.3281, 0.9189, -0.436, -1.4805, 0.8599, -0.2369, -1.4141, 1.1104, -0.436, -1.4805, 0.8599, 0.0609, -0.6445, -0.8584, -0.4373, -0.8115, -0.9746, -0.436, -1.4805, 0.8599, -1.0557, -1.0186, 0.6421, -1, -1, 1, -0.8149, -0.938, 0.459, -0.6382, -0.8784, -0.0484, -0.8472, -0.9487, 0.0098, -0.6382, -0.8784, -0.0484, -0.436, -1.4805, 0.8599, -0.4373, -0.8115, -0.9746, -0.4373, -0.8115, -0.9746, -0.6704, -0.8892, -0.4727, -0.6382, -0.8784, -0.0484, -0.6704, -0.8892, -0.4727, -0.4373, -0.8115, -0.9746, -0.9272, -0.9756, -0.6558, -0.9272, -0.9756, -0.6558, -0.4373, -0.8115, -0.9746, -1, -1, -1, 0.6636, -0.4426, -0.8916, 0.2284, 1, -1.3965, 0.3743, -0.5396, -1, 0.6636, -0.4426, -0.8916, 1, 1, -1.1816, 0.6064, 1, -1.1035, 0.3743, -0.5396, -1, -0.224, 1, -1.4707, 0.0609, -0.6445, -0.8584, 0.0609, -0.6445, -0.8584, -0.6172, 1, -1.208, -0.2123, -0.7358, -1.1738, -0.6299, -0.876, -1.249, -0.2123, -0.7358, -1.1738, -0.6172, 1, -1.208, -0.6172, 1, -1.208, -1, -1, -1, -0.6299, -0.876, -1.249, -0.9272, -0.9756, -0.6558, -1.3096, 1, -1.1455, -1.6006, 1, -0.5103, -0.9272, -0.9756, -0.6558, -1.8418, 1, -0.1023, -0.6704, -0.8892, -0.4727, -0.6704, -0.8892, -0.4727, -1.7959, 1, 0.261, -0.6382, -0.8784, -0.0484, -0.6382, -0.8784, -0.0484, -1.6563, 1, 0.5649, -0.8472, -0.9487, 0.0098, -0.8472, -0.9487, 0.0098, -1.3691, 0.9907, 0.8247, -0.8149, -0.938, 0.459, -0.8149, -0.938, 0.459, -1.1465, 1, 1.3164, -1.0557, -1.0186, 0.6421, -0.436, -1.4805, 0.8599, -1.1465, 1, 1.3164, -0.646, 1, 1.2568, -0.08, 1, 1.4199, 0.0189, -1.3281, 0.9189, -0.646, 1, 1.2568, -0.646, 1, 1.2568, -0.2369, -1.4141, 1.1104, -0.436, -1.4805, 0.8599, 0.0189, -1.3281, 0.9189, 0.3279, 1, 1.8535, 0.225, -1.2588, 1.125, 0.225, -1.2588, 1.125, 0.7207, 1, 1.3301, 0.5234, -1.1592, 0.9629, 0.5234, -1.1592, 0.9629, 1.3115, 1, 1.2607, 0.751, -1.083, 1.1611, 1.2412, -0.9189, 0.6484, 1.3115, 1, 1.2607, 1.5674, 1, 0.6758, 1.5674, 1, 0.6758, 1.0283, -0.9902, 0.3909, 1.2412, -0.9189, 0.6484, 1.2715, 1, 0.2358, 1.1631, -0.9448, 0.0451, 1.0283, -0.9902, 0.3909, 1.4697, 1, -0.2463, 1.0918, -0.9688, -0.4331, 1.1631, -0.9448, 0.0451, 1, 1, -1.1816, 1.0918, -0.9688, -0.4331, 1.251, 1, -0.6914 )

